%YAML 1.1
%TAG !u! tag:unity3d.com,2011:
--- !u!1 &6612356841160770697
GameObject:
  m_ObjectHideFlags: 0
  m_CorrespondingSourceObject: {fileID: 0}
  m_PrefabInstance: {fileID: 0}
  m_PrefabAsset: {fileID: 0}
  serializedVersion: 6
  m_Component:
  - component: {fileID: 6612356841160770699}
  - component: {fileID: 6612356841160770698}
  m_Layer: 0
  m_Name: GameController
  m_TagString: Untagged
  m_Icon: {fileID: 0}
  m_NavMeshLayer: 0
  m_StaticEditorFlags: 0
  m_IsActive: 1
--- !u!4 &6612356841160770699
Transform:
  m_ObjectHideFlags: 0
  m_CorrespondingSourceObject: {fileID: 0}
  m_PrefabInstance: {fileID: 0}
  m_PrefabAsset: {fileID: 0}
  m_GameObject: {fileID: 6612356841160770697}
  m_LocalRotation: {x: 0, y: 0, z: 0, w: 1}
  m_LocalPosition: {x: 0, y: 0, z: 0}
  m_LocalScale: {x: 1, y: 1, z: 1}
  m_Children: []
  m_Father: {fileID: 0}
  m_RootOrder: 0
  m_LocalEulerAnglesHint: {x: 0, y: 0, z: 0}
--- !u!114 &6612356841160770698
MonoBehaviour:
  m_ObjectHideFlags: 0
  m_CorrespondingSourceObject: {fileID: 0}
  m_PrefabInstance: {fileID: 0}
  m_PrefabAsset: {fileID: 0}
  m_GameObject: {fileID: 6612356841160770697}
  m_Enabled: 1
  m_EditorHideFlags: 0
  m_Script: {fileID: 11500000, guid: 344c921b636f5a84d878a7c8c1c9d786, type: 3}
  m_Name: 
  m_EditorClassIdentifier: 
  Players: []
  EndMenu: {fileID: 0}
  CollisionDamageRatio:
    serializedVersion: 2
    m_Curve:
    - serializedVersion: 3
      time: 0
      value: 0
      inSlope: 0.07679713
      outSlope: 0.07679713
      tangentMode: 0
      weightedMode: 0
      inWeight: 0
      outWeight: 0.09586465
    - serializedVersion: 3
      time: 595.1545
      value: 14.924838
      inSlope: 0.020808242
      outSlope: 0.020808242
      tangentMode: 0
      weightedMode: 0
      inWeight: 0.08524348
      outWeight: 0
    m_PreInfinity: 2
    m_PostInfinity: 2
    m_RotationOrder: 4
  RespawnTime: 3
  MaxHealth: 20
  MaxRespawns: 3
  minimumY: -5
  punchChargeTime: 0.1
  punchCooldown: 0.05
  BrainFirerateMultiplier:
    serializedVersion: 2
    m_Curve:
    - serializedVersion: 3
      time: -0
      value: 1
      inSlope: 0.07551059
      outSlope: 0.07551059
      tangentMode: 0
      weightedMode: 0
      inWeight: 0
      outWeight: 0.0936901
    - serializedVersion: 3
      time: 1
      value: 0.5
      inSlope: 0
      outSlope: 0
      tangentMode: 0
      weightedMode: 0
      inWeight: 0
      outWeight: 0
    m_PreInfinity: 2
    m_PostInfinity: 2
    m_RotationOrder: 4
  BrainInaccuracyMultiplier:
    serializedVersion: 2
    m_Curve:
    - serializedVersion: 3
      time: 0
      value: 1
      inSlope: -0.022421552
      outSlope: -0.022421552
      tangentMode: 0
      weightedMode: 0
      inWeight: 0
      outWeight: 0.10516222
    - serializedVersion: 3
      time: 1
      value: 0.3
      inSlope: -2.1836991
      outSlope: -2.1836991
      tangentMode: 0
      weightedMode: 0
      inWeight: 0.051626086
      outWeight: 0
    m_PreInfinity: 2
    m_PostInfinity: 2
    m_RotationOrder: 4
  BrainProjectilesMultiplier:
    serializedVersion: 2
    m_Curve:
    - serializedVersion: 3
      time: 0
      value: 1
      inSlope: 2
      outSlope: 2
      tangentMode: 34
      weightedMode: 0
      inWeight: 0
      outWeight: 0.33333334
    - serializedVersion: 3
      time: 1
      value: 3
      inSlope: 2
      outSlope: 2
      tangentMode: 34
      weightedMode: 0
      inWeight: 0.33333334
      outWeight: 0
    m_PreInfinity: 2
    m_PostInfinity: 2
    m_RotationOrder: 4
  LegsSpeedMultiplier:
    serializedVersion: 2
    m_Curve:
    - serializedVersion: 3
      time: 0
      value: 1
      inSlope: -0.25
      outSlope: -0.25
      tangentMode: 34
      weightedMode: 0
      inWeight: 0
      outWeight: 0.33333334
    - serializedVersion: 3
      time: 1
      value: 0.75
      inSlope: -0.25
      outSlope: -0.25
      tangentMode: 34
      weightedMode: 0
      inWeight: 0.33333334
      outWeight: 0
    m_PreInfinity: 2
    m_PostInfinity: 2
    m_RotationOrder: 4
  LegsJumpMultiplier:
    serializedVersion: 2
    m_Curve:
    - serializedVersion: 3
      time: 0
      value: 1
      inSlope: 0.5
      outSlope: 0.5
      tangentMode: 34
      weightedMode: 0
      inWeight: 0
      outWeight: 0.33333334
    - serializedVersion: 3
      time: 1
      value: 1.5
      inSlope: 0.5
      outSlope: 0.5
      tangentMode: 34
      weightedMode: 0
      inWeight: 0.33333334
      outWeight: 0
    m_PreInfinity: 2
    m_PostInfinity: 2
    m_RotationOrder: 4
  ArmsStrengthMultiplier:
    serializedVersion: 2
    m_Curve:
    - serializedVersion: 3
      time: 0
      value: 1
      inSlope: 2
      outSlope: 2
      tangentMode: 34
      weightedMode: 0
      inWeight: 0
      outWeight: 0.33333334
    - serializedVersion: 3
      time: 1
      value: 3
      inSlope: 2
      outSlope: 2
      tangentMode: 34
      weightedMode: 0
      inWeight: 0.33333334
      outWeight: 0
    m_PreInfinity: 2
    m_PostInfinity: 2
    m_RotationOrder: 4
