%YAML 1.1
%TAG !u! tag:unity3d.com,2011:
--- !u!319 &31900000
AvatarMask:
  m_ObjectHideFlags: 0
  m_CorrespondingSourceObject: {fileID: 0}
  m_PrefabInstance: {fileID: 0}
  m_PrefabAsset: {fileID: 0}
  m_Name: DudeArms
  m_Mask: 01000000000000000000000001000000010000000000000000000000000000000000000001000000010000000100000001000000
  m_Elements:
  - m_Path: 
    m_Weight: 1
  - m_Path: metarig
    m_Weight: 1
  - m_Path: metarig/spine
    m_Weight: 1
  - m_Path: metarig/spine/pelvis.L
    m_Weight: 1
  - m_Path: metarig/spine/pelvis.R
    m_Weight: 1
  - m_Path: metarig/spine/spine.001
    m_Weight: 1
  - m_Path: metarig/spine/spine.001/spine.002
    m_Weight: 1
  - m_Path: metarig/spine/spine.001/spine.002/spine.003
    m_Weight: 1
  - m_Path: metarig/spine/spine.001/spine.002/spine.003/shoulder.L
    m_Weight: 1
  - m_Path: metarig/spine/spine.001/spine.002/spine.003/shoulder.L/upper_arm.L
    m_Weight: 1
  - m_Path: metarig/spine/spine.001/spine.002/spine.003/shoulder.L/upper_arm.L/forearm.L
    m_Weight: 1
  - m_Path: metarig/spine/spine.001/spine.002/spine.003/shoulder.L/upper_arm.L/forearm.L/hand.L
    m_Weight: 1
  - m_Path: metarig/spine/spine.001/spine.002/spine.003/shoulder.R
    m_Weight: 1
  - m_Path: metarig/spine/spine.001/spine.002/spine.003/shoulder.R/upper_arm.R
    m_Weight: 1
  - m_Path: metarig/spine/spine.001/spine.002/spine.003/shoulder.R/upper_arm.R/forearm.R
    m_Weight: 1
  - m_Path: metarig/spine/spine.001/spine.002/spine.003/shoulder.R/upper_arm.R/forearm.R/hand.R
    m_Weight: 1
  - m_Path: metarig/spine/spine.001/spine.002/spine.003/spine.004
    m_Weight: 1
  - m_Path: metarig/spine/spine.001/spine.002/spine.003/spine.004/spine.005
    m_Weight: 1
  - m_Path: metarig/spine/thigh.L
    m_Weight: 0
  - m_Path: metarig/spine/thigh.L/shin.L
    m_Weight: 0
  - m_Path: metarig/spine/thigh.R
    m_Weight: 0
  - m_Path: metarig/spine/thigh.R/shin.R
    m_Weight: 0
  - m_Path: Ukkeli
    m_Weight: 1
